rtl/tb/tb_hcpu_top.vcd
$date
	Fri Apr 10 09:09:14 2026
$end
$version
	Icarus Verilog
$end
$timescale
	1ps
$end
$scope module tb_hcpu_top $end
$var wire 32 ! imem_data [31:0] $end
$var wire 1 " uart_tx $end
$var wire 12 # imem_addr [11:0] $end
$var wire 1 $ halted_out $end
$var wire 1 % guard_led $end
$var reg 1 & clk $end
$var reg 1 ' rst_n $end
$var integer 32 ( cycle_count [31:0] $end
$var integer 32 ) i [31:0] $end
$scope function enc $end
$var reg 4 * dst [3:0] $end
$var reg 12 + imm [11:0] $end
$var reg 8 , op [7:0] $end
$var reg 4 - s1 [3:0] $end
$var reg 4 . s2 [3:0] $end
$upscope $end
$scope module uut $end
$var wire 1 / calu_done $end
$var wire 1 & clk $end
$var wire 32 0 imem_data [31:0] $end
$var wire 1 ' rst_n $end
$var wire 1 1 wb_hreg_we $end
$var wire 144 2 wb_hreg_wdata [143:0] $end
$var wire 4 3 wb_hreg_waddr [3:0] $end
$var wire 1 4 wb_halt $end
$var wire 1 5 wb_gpr_we $end
$var wire 32 6 wb_gpr_wdata [31:0] $end
$var wire 5 7 wb_gpr_waddr [4:0] $end
$var wire 1 8 wb_flags_we $end
$var wire 8 9 wb_flags [7:0] $end
$var wire 1 " uart_tx $end
$var wire 1 : uart_busy $end
$var wire 1 ; t2 $end
$var wire 1 < t1 $end
$var wire 1 = rom_valid $end
$var wire 144 > rom_data [143:0] $end
$var wire 5 ? rom_addr [4:0] $end
$var wire 1 @ pipe_stall $end
$var wire 1 A pipe_flush $end
$var wire 32 B pc_out [31:0] $end
$var wire 1 C mem_is_halt $end
$var wire 1 D mem_hreg_we $end
$var wire 144 E mem_hreg_result [143:0] $end
$var wire 1 F mem_gpr_we $end
$var wire 32 G mem_gpr_result [31:0] $end
$var wire 1 H mem_flags_we $end
$var wire 8 I mem_flags_new [7:0] $end
$var wire 4 J mem_dst [3:0] $end
$var wire 12 K imem_addr [11:0] $end
$var wire 32 L if_pc [31:0] $end
$var wire 32 M if_instruction [31:0] $end
$var wire 4 N id_s2 [3:0] $end
$var wire 4 O id_s1 [3:0] $end
$var wire 32 P id_pc [31:0] $end
$var wire 8 Q id_opcode [7:0] $end
$var wire 1 R id_mem_write $end
$var wire 1 S id_mem_read $end
$var wire 1 T id_is_push $end
$var wire 1 U id_is_print $end
$var wire 1 V id_is_pop $end
$var wire 1 W id_is_jump $end
$var wire 1 X id_is_halt $end
$var wire 1 Y id_is_codex $end
$var wire 1 Z id_is_branch $end
$var wire 12 [ id_imm [11:0] $end
$var wire 1 \ id_hreg_we $end
$var wire 144 ] id_hreg_s2 [143:0] $end
$var wire 144 ^ id_hreg_s1 [143:0] $end
$var wire 1 _ id_gpr_we $end
$var wire 32 ` id_gpr_s2 [31:0] $end
$var wire 32 a id_gpr_s1 [31:0] $end
$var wire 4 b id_dst [3:0] $end
$var wire 144 c hreg_rdata2 [143:0] $end
$var wire 144 d hreg_rdata1 [143:0] $end
$var wire 4 e hreg_raddr2 [3:0] $end
$var wire 4 f hreg_raddr1 [3:0] $end
$var wire 1 $ halted $end
$var wire 144 g guard_vec [143:0] $end
$var wire 1 h guard_pass $end
$var wire 1 % guard_led $end
$var wire 32 i gpr_rdata2 [31:0] $end
$var wire 32 j gpr_rdata1 [31:0] $end
$var wire 5 k gpr_raddr2 [4:0] $end
$var wire 5 l gpr_raddr1 [4:0] $end
$var wire 1 m g4 $end
$var wire 1 n g3 $end
$var wire 1 o g2 $end
$var wire 1 p g1 $end
$var wire 8 q flags_out [7:0] $end
$var wire 32 r ex_push_data [31:0] $end
$var wire 32 s ex_print_data [31:0] $end
$var wire 8 t ex_opcode [7:0] $end
$var wire 1 u ex_is_push $end
$var wire 1 v ex_is_print $end
$var wire 1 w ex_is_pop $end
$var wire 1 x ex_is_halt $end
$var wire 1 y ex_hreg_we $end
$var wire 144 z ex_hreg_result [143:0] $end
$var wire 1 { ex_gpr_we $end
$var wire 32 | ex_gpr_result [31:0] $end
$var wire 1 } ex_flags_we $end
$var wire 8 ~ ex_flags_new [7:0] $end
$var wire 4 !" ex_dst [3:0] $end
$var wire 144 "" calu_src2 [143:0] $end
$var wire 144 #" calu_src1 [143:0] $end
$var wire 144 $" calu_result_vec [143:0] $end
$var wire 32 %" calu_result_scl [31:0] $end
$var wire 3 &" calu_op [2:0] $end
$var wire 32 '" branch_target_w [31:0] $end
$var wire 1 (" branch_taken_w $end
$var parameter 32 )" BAUD $end
$var parameter 32 *" CLK_HZ $end
$var parameter 3 +" P_CONV $end
$var parameter 3 ," P_IDLE $end
$var parameter 3 -" P_NEWLN $end
$var parameter 3 ." P_SEND $end
$var parameter 3 /" P_WAIT $end
$var reg 4 0" digit_cnt [3:0] $end
$var reg 4 1" digit_idx [3:0] $end
$var reg 1 2" print_active $end
$var reg 3 3" print_state [2:0] $end
$var reg 32 4" print_val [31:0] $end
$var reg 8 5" uart_data [7:0] $end
$var reg 1 6" uart_start $end
$scope module u_codex_alu $end
$var wire 1 / done $end
$var wire 144 7" src2 [143:0] $end
$var wire 144 8" src1 [143:0] $end
$var wire 144 9" packed_add [143:0] $end
$var wire 3 :" op [2:0] $end
$var wire 16 ;" norm2_sum [15:0] $end
$var wire 16 <" dist2_sum [15:0] $end
$var parameter 3 =" ALU_HCADD $end
$var parameter 3 >" ALU_HDIST $end
$var parameter 3 ?" ALU_HNRM2 $end
$var reg 32 @" result_scl [31:0] $end
$var reg 144 A" result_vec [143:0] $end
$scope begin cadd[0] $end
$var parameter 2 B" gi $end
$upscope $end
$scope begin cadd[1] $end
$var parameter 2 C" gi $end
$upscope $end
$scope begin cadd[2] $end
$var parameter 3 D" gi $end
$upscope $end
$scope begin cadd[3] $end
$var parameter 3 E" gi $end
$upscope $end
$scope begin cadd[4] $end
$var parameter 4 F" gi $end
$upscope $end
$scope begin cadd[5] $end
$var parameter 4 G" gi $end
$upscope $end
$scope begin cadd[6] $end
$var parameter 4 H" gi $end
$upscope $end
$scope begin cadd[7] $end
$var parameter 4 I" gi $end
$upscope $end
$scope begin cadd[8] $end
$var parameter 5 J" gi $end
$upscope $end
$scope begin cadd[9] $end
$var parameter 5 K" gi $end
$upscope $end
$scope begin cadd[10] $end
$var parameter 5 L" gi $end
$upscope $end
$scope begin cadd[11] $end
$var parameter 5 M" gi $end
$upscope $end
$scope begin cadd[12] $end
$var parameter 5 N" gi $end
$upscope $end
$scope begin cadd[13] $end
$var parameter 5 O" gi $end
$upscope $end
$scope begin cadd[14] $end
$var parameter 5 P" gi $end
$upscope $end
$scope begin cadd[15] $end
$var parameter 5 Q" gi $end
$upscope $end
$scope begin cadd[16] $end
$var parameter 6 R" gi $end
$upscope $end
$scope begin cadd[17] $end
$var parameter 6 S" gi $end
$upscope $end
$scope begin extract[0] $end
$var parameter 2 T" gi $end
$upscope $end
$scope begin extract[1] $end
$var parameter 2 U" gi $end
$upscope $end
$scope begin extract[2] $end
$var parameter 3 V" gi $end
$upscope $end
$scope begin extract[3] $end
$var parameter 3 W" gi $end
$upscope $end
$scope begin extract[4] $end
$var parameter 4 X" gi $end
$upscope $end
$scope begin extract[5] $end
$var parameter 4 Y" gi $end
$upscope $end
$scope begin extract[6] $end
$var parameter 4 Z" gi $end
$upscope $end
$scope begin extract[7] $end
$var parameter 4 [" gi $end
$upscope $end
$scope begin extract[8] $end
$var parameter 5 \" gi $end
$upscope $end
$scope begin extract[9] $end
$var parameter 5 ]" gi $end
$upscope $end
$scope begin extract[10] $end
$var parameter 5 ^" gi $end
$upscope $end
$scope begin extract[11] $end
$var parameter 5 _" gi $end
$upscope $end
$scope begin extract[12] $end
$var parameter 5 `" gi $end
$upscope $end
$scope begin extract[13] $end
$var parameter 5 a" gi $end
$upscope $end
$scope begin extract[14] $end
$var parameter 5 b" gi $end
$upscope $end
$scope begin extract[15] $end
$var parameter 5 c" gi $end
$upscope $end
$scope begin extract[16] $end
$var parameter 6 d" gi $end
$upscope $end
$scope begin extract[17] $end
$var parameter 6 e" gi $end
$upscope $end
$scope begin sq_dist[0] $end
$var parameter 2 f" gi $end
$upscope $end
$scope begin sq_dist[1] $end
$var parameter 2 g" gi $end
$upscope $end
$scope begin sq_dist[2] $end
$var parameter 3 h" gi $end
$upscope $end
$scope begin sq_dist[3] $end
$var parameter 3 i" gi $end
$upscope $end
$scope begin sq_dist[4] $end
$var parameter 4 j" gi $end
$upscope $end
$scope begin sq_dist[5] $end
$var parameter 4 k" gi $end
$upscope $end
$scope begin sq_dist[6] $end
$var parameter 4 l" gi $end
$upscope $end
$scope begin sq_dist[7] $end
$var parameter 4 m" gi $end
$upscope $end
$scope begin sq_dist[8] $end
$var parameter 5 n" gi $end
$upscope $end
$scope begin sq_dist[9] $end
$var parameter 5 o" gi $end
$upscope $end
$scope begin sq_dist[10] $end
$var parameter 5 p" gi $end
$upscope $end
$scope begin sq_dist[11] $end
$var parameter 5 q" gi $end
$upscope $end
$scope begin sq_dist[12] $end
$var parameter 5 r" gi $end
$upscope $end
$scope begin sq_dist[13] $end
$var parameter 5 s" gi $end
$upscope $end
$scope begin sq_norm[0] $end
$var parameter 2 t" gi $end
$upscope $end
$scope begin sq_norm[1] $end
$var parameter 2 u" gi $end
$upscope $end
$scope begin sq_norm[2] $end
$var parameter 3 v" gi $end
$upscope $end
$scope begin sq_norm[3] $end
$var parameter 3 w" gi $end
$upscope $end
$scope begin sq_norm[4] $end
$var parameter 4 x" gi $end
$upscope $end
$scope begin sq_norm[5] $end
$var parameter 4 y" gi $end
$upscope $end
$scope begin sq_norm[6] $end
$var parameter 4 z" gi $end
$upscope $end
$scope begin sq_norm[7] $end
$var parameter 4 {" gi $end
$upscope $end
$scope begin sq_norm[8] $end
$var parameter 5 |" gi $end
$upscope $end
$scope begin sq_norm[9] $end
$var parameter 5 }" gi $end
$upscope $end
$scope begin sq_norm[10] $end
$var parameter 5 ~" gi $end
$upscope $end
$scope begin sq_norm[11] $end
$var parameter 5 !# gi $end
$upscope $end
$scope begin sq_norm[12] $end
$var parameter 5 "# gi $end
$upscope $end
$scope begin sq_norm[13] $end
$var parameter 5 ## gi $end
$upscope $end
$upscope $end
$scope module u_controller $end
$var wire 1 & clk $end
$var wire 1 2" ex_is_print $end
$var wire 1 A pipe_flush $end
$var wire 1 @ pipe_stall $end
$var wire 1 ' rst_n $end
$var wire 1 4 wb_halt $end
$var wire 1 : uart_busy $end
$var wire 1 (" branch_taken $end
$var reg 1 $ halted $end
$var reg 1 $# print_pending $end
$upscope $end
$scope module u_decode $end
$var wire 1 & clk $end
$var wire 1 A flush $end
$var wire 4 %# hreg_raddr1 [3:0] $end
$var wire 4 &# hreg_raddr2 [3:0] $end
$var wire 1 ' rst_n $end
$var wire 1 @ stall $end
$var wire 4 '# s2 [3:0] $end
$var wire 4 (# s1 [3:0] $end
$var wire 8 )# opcode [7:0] $end
$var wire 12 *# imm [11:0] $end
$var wire 32 +# if_pc [31:0] $end
$var wire 32 ,# if_instruction [31:0] $end
$var wire 144 -# hreg_rdata2 [143:0] $end
$var wire 144 .# hreg_rdata1 [143:0] $end
$var wire 32 /# gpr_rdata2 [31:0] $end
$var wire 32 0# gpr_rdata1 [31:0] $end
$var wire 5 1# gpr_raddr2 [4:0] $end
$var wire 5 2# gpr_raddr1 [4:0] $end
$var wire 4 3# dst [3:0] $end
$var reg 4 4# id_dst [3:0] $end
$var reg 32 5# id_gpr_s1 [31:0] $end
$var reg 32 6# id_gpr_s2 [31:0] $end
$var reg 1 _ id_gpr_we $end
$var reg 144 7# id_hreg_s1 [143:0] $end
$var reg 144 8# id_hreg_s2 [143:0] $end
$var reg 1 \ id_hreg_we $end
$var reg 12 9# id_imm [11:0] $end
$var reg 1 Z id_is_branch $end
$var reg 1 Y id_is_codex $end
$var reg 1 X id_is_halt $end
$var reg 1 W id_is_jump $end
$var reg 1 V id_is_pop $end
$var reg 1 U id_is_print $end
$var reg 1 T id_is_push $end
$var reg 1 S id_mem_read $end
$var reg 1 R id_mem_write $end
$var reg 8 :# id_opcode [7:0] $end
$var reg 32 ;# id_pc [31:0] $end
$var reg 4 <# id_s1 [3:0] $end
$var reg 4 =# id_s2 [3:0] $end
$upscope $end
$scope module u_execute $end
$var wire 32 ># calu_result_scl [31:0] $end
$var wire 144 ?# calu_result_vec [143:0] $end
$var wire 144 @# calu_src1 [143:0] $end
$var wire 144 A# calu_src2 [143:0] $end
$var wire 1 & clk $end
$var wire 1 A flush $end
$var wire 144 B# guard_vec [143:0] $end
$var wire 4 C# id_dst [3:0] $end
$var wire 32 D# id_gpr_s1 [31:0] $end
$var wire 32 E# id_gpr_s2 [31:0] $end
$var wire 1 _ id_gpr_we $end
$var wire 144 F# id_hreg_s1 [143:0] $end
$var wire 144 G# id_hreg_s2 [143:0] $end
$var wire 1 \ id_hreg_we $end
$var wire 12 H# id_imm [11:0] $end
$var wire 1 Z id_is_branch $end
$var wire 1 Y id_is_codex $end
$var wire 1 X id_is_halt $end
$var wire 1 W id_is_jump $end
$var wire 1 V id_is_pop $end
$var wire 1 U id_is_print $end
$var wire 1 T id_is_push $end
$var wire 8 I# id_opcode [7:0] $end
$var wire 32 J# id_pc [31:0] $end
$var wire 4 K# id_s1 [3:0] $end
$var wire 4 L# id_s2 [3:0] $end
$var wire 1 ' rst_n $end
$var wire 1 @ stall $end
$var wire 1 = rom_valid $end
$var wire 144 M# rom_data [143:0] $end
$var wire 5 N# rom_addr [4:0] $end
$var wire 32 O# imm_zext [31:0] $end
$var wire 32 P# imm_sext [31:0] $end
$var wire 1 h guard_pass $end
$var wire 8 Q# current_flags [7:0] $end
$var wire 3 R# calu_op [2:0] $end
$var reg 8 S# alu_flags [7:0] $end
$var reg 1 T# alu_flags_we $end
$var reg 32 U# alu_result [31:0] $end
$var reg 1 (" branch_taken $end
$var reg 32 V# branch_target [31:0] $end
$var reg 32 W# codex_gpr [31:0] $end
$var reg 144 X# codex_hvec [143:0] $end
$var reg 4 Y# ex_dst [3:0] $end
$var reg 8 Z# ex_flags_new [7:0] $end
$var reg 1 } ex_flags_we $end
$var reg 32 [# ex_gpr_result [31:0] $end
$var reg 1 { ex_gpr_we $end
$var reg 144 \# ex_hreg_result [143:0] $end
$var reg 1 y ex_hreg_we $end
$var reg 1 x ex_is_halt $end
$var reg 1 w ex_is_pop $end
$var reg 1 v ex_is_print $end
$var reg 1 u ex_is_push $end
$var reg 8 ]# ex_opcode [7:0] $end
$var reg 32 ^# ex_print_data [31:0] $end
$var reg 32 _# ex_push_data [31:0] $end
$upscope $end
$scope module u_fetch $end
$var wire 1 (" branch_taken $end
$var wire 32 `# branch_target [31:0] $end
$var wire 1 & clk $end
$var wire 1 A flush $end
$var wire 32 a# imem_data [31:0] $end
$var wire 1 ' rst_n $end
$var wire 1 @ stall $end
$var wire 12 b# imem_addr [11:0] $end
$var reg 32 c# if_instruction [31:0] $end
$var reg 32 d# if_pc [31:0] $end
$var reg 32 e# pc [31:0] $end
$upscope $end
$scope module u_guard $end
$var wire 1 p g1_pass $end
$var wire 1 h guard_pass $end
$var wire 1 f# is_kaf $end
$var wire 1 < t1_pass $end
$var wire 1 ; t2_pass $end
$var wire 144 g# vec [143:0] $end
$var wire 11 h# u_val [10:0] $end
$var wire 8 i# theta [7:0] $end
$var wire 11 j# sum_q [10:0] $end
$var wire 10 k# sum_n [9:0] $end
$var wire 11 l# sum_k [10:0] $end
$var wire 8 m# qx [7:0] $end
$var wire 8 n# qs [7:0] $end
$var wire 8 o# qp [7:0] $end
$var wire 8 p# qc [7:0] $end
$var wire 8 q# qa [7:0] $end
$var wire 8 r# nd [7:0] $end
$var wire 8 s# nb [7:0] $end
$var wire 8 t# na [7:0] $end
$var wire 8 u# kx [7:0] $end
$var wire 8 v# ks [7:0] $end
$var wire 8 w# kp [7:0] $end
$var wire 8 x# kc [7:0] $end
$var wire 8 y# ka [7:0] $end
$var wire 1 m g4_pass $end
$var wire 1 n g3_pass $end
$var wire 1 o g2_pass $end
$var wire 8 z# a_q [7:0] $end
$var wire 8 {# a_n [7:0] $end
$var wire 8 |# a_k [7:0] $end
$upscope $end
$scope module u_memory $end
$var wire 1 & clk $end
$var wire 4 }# ex_dst [3:0] $end
$var wire 8 ~# ex_flags_new [7:0] $end
$var wire 1 } ex_flags_we $end
$var wire 32 !$ ex_gpr_result [31:0] $end
$var wire 1 { ex_gpr_we $end
$var wire 144 "$ ex_hreg_result [143:0] $end
$var wire 1 y ex_hreg_we $end
$var wire 1 x ex_is_halt $end
$var wire 1 w ex_is_pop $end
$var wire 1 u ex_is_push $end
$var wire 8 #$ ex_opcode [7:0] $end
$var wire 32 $$ ex_push_data [31:0] $end
$var wire 1 ' rst_n $end
$var wire 1 @ stall $end
$var wire 32 %$ stack_top [31:0] $end
$var reg 4 &$ mem_dst [3:0] $end
$var reg 8 '$ mem_flags_new [7:0] $end
$var reg 1 H mem_flags_we $end
$var reg 32 ($ mem_gpr_result [31:0] $end
$var reg 1 F mem_gpr_we $end
$var reg 144 )$ mem_hreg_result [143:0] $end
$var reg 1 D mem_hreg_we $end
$var reg 1 C mem_is_halt $end
$var reg 8 *$ sp [7:0] $end
$upscope $end
$scope module u_regfile $end
$var wire 1 & clk $end
$var wire 8 +$ flags_out [7:0] $end
$var wire 5 ,$ gpr_raddr1 [4:0] $end
$var wire 5 -$ gpr_raddr2 [4:0] $end
$var wire 32 .$ gpr_rdata1 [31:0] $end
$var wire 32 /$ gpr_rdata2 [31:0] $end
$var wire 4 0$ hreg_raddr1 [3:0] $end
$var wire 4 1$ hreg_raddr2 [3:0] $end
$var wire 144 2$ hreg_rdata1 [143:0] $end
$var wire 144 3$ hreg_rdata2 [143:0] $end
$var wire 32 4$ pc_in [31:0] $end
$var wire 32 5$ pc_out [31:0] $end
$var wire 1 6$ pc_we $end
$var wire 1 ' rst_n $end
$var wire 1 1 hreg_we $end
$var wire 144 7$ hreg_wdata [143:0] $end
$var wire 4 8$ hreg_waddr [3:0] $end
$var wire 1 5 gpr_we $end
$var wire 32 9$ gpr_wdata [31:0] $end
$var wire 5 :$ gpr_waddr [4:0] $end
$var wire 1 8 flags_we $end
$var wire 8 ;$ flags_in [7:0] $end
$var reg 8 <$ flags [7:0] $end
$var reg 32 =$ pc [31:0] $end
$var integer 32 >$ i [31:0] $end
$upscope $end
$scope module u_rom $end
$var wire 5 ?$ addr [4:0] $end
$var reg 144 @$ data_out [143:0] $end
$var reg 1 = valid $end
$upscope $end
$scope module u_uart $end
$var wire 1 & clk $end
$var wire 1 ' rst_n $end
$var wire 8 A$ tx_data [7:0] $end
$var wire 1 6" tx_start $end
$var wire 1 : tx_busy $end
$var parameter 32 B$ BAUD $end
$var parameter 32 C$ CLKS_PER_BIT $end
$var parameter 32 D$ CLK_HZ $end
$var parameter 32 E$ CNT_W $end
$var parameter 2 F$ S_DATA $end
$var parameter 2 G$ S_IDLE $end
$var parameter 2 H$ S_START $end
$var parameter 2 I$ S_STOP $end
$var reg 3 J$ bit_idx [2:0] $end
$var reg 4 K$ clk_cnt [3:0] $end
$var reg 2 L$ state [1:0] $end
$var reg 1 " tx_out $end
$var reg 8 M$ tx_shift [7:0] $end
$upscope $end
$scope module u_writeback $end
$var wire 4 N$ mem_dst [3:0] $end
$var wire 8 O$ mem_flags_new [7:0] $end
$var wire 1 H mem_flags_we $end
$var wire 32 P$ mem_gpr_result [31:0] $end
$var wire 1 F mem_gpr_we $end
$var wire 144 Q$ mem_hreg_result [143:0] $end
$var wire 1 D mem_hreg_we $end
$var wire 1 C mem_is_halt $end
$var wire 8 R$ wb_flags [7:0] $end
$var wire 1 8 wb_flags_we $end
$var wire 32 S$ wb_gpr_wdata [31:0] $end
$var wire 1 5 wb_gpr_we $end
$var wire 1 4 wb_halt $end
$var wire 4 T$ wb_hreg_waddr [3:0] $end
$var wire 144 U$ wb_hreg_wdata [143:0] $end
$var wire 1 1 wb_hreg_we $end
$var wire 5 V$ wb_gpr_waddr [4:0] $end
$upscope $end
$upscope $end
$upscope $end
$enddefinitions $end
$comment Show the parameter values. $end
$dumpall
b11 I$
b1 H$
b0 G$
b10 F$
b100 E$
b10111110101111000010000000 D$
b1010 C$
b10011000100101101000000 B$
b1101 ##
b1100 "#
b1011 !#
b1010 ~"
b1001 }"
b1000 |"
b111 {"
b110 z"
b101 y"
b100 x"
b11 w"
b10 v"
b1 u"
b0 t"
b1101 s"
b1100 r"
b1011 q"
b1010 p"
b1001 o"
b1000 n"
b111 m"
b110 l"
b101 k"
b100 j"
b11 i"
b10 h"
b1 g"
b0 f"
b10001 e"
b10000 d"
b1111 c"
b1110 b"
b1101 a"
b1100 `"
b1011 _"
b1010 ^"
b1001 ]"
b1000 \"
b111 ["
b110 Z"
b101 Y"
b100 X"
b11 W"
b10 V"
b1 U"
b0 T"
b10001 S"
b10000 R"
b1111 Q"
b1110 P"
b1101 O"
b1100 N"
b1011 M"
b1010 L"
b1001 K"
b1000 J"
b111 I"
b110 H"
b101 G"
b100 F"
b11 E"
b10 D"
b1 C"
b0 B"
b1 ?"
b10 >"
b0 ="
b11 /"
b10 ."
b100 -"
b0 ,"
b1 +"
b10111110101111000010000000 *"
b10011000100101101000000 )"
$end
#0
$dumpvars
b0 V$
b0 U$
b0 T$
b0 S$
b0 R$
b0 Q$
b0 P$
b0 O$
b0 N$
b0 M$
b0 L$
b0 K$
b0 J$
b0 A$
b0 @$
b0 ?$
b10000 >$
b0 =$
b0 <$
b0 ;$
b0 :$
b0 9$
b0 8$
b0 7$
06$
b0 5$
b0 4$
b0 3$
b0 2$
b0 1$
b0 0$
b0 /$
b0 .$
b0 -$
b0 ,$
b0 +$
b0 *$
b0 )$
b0 ($
b0 '$
b0 &$
b0 %$
b0 $$
b0 #$
b0 "$
b0 !$
b0 ~#
b0 }#
b0 |#
b0 {#
b0 z#
b0 y#
b0 x#
b0 w#
b0 v#
b0 u#
b0 t#
b0 s#
b0 r#
b0 q#
b0 p#
b0 o#
b0 n#
b0 m#
b0 l#
b0 k#
b0 j#
b0 i#
b0 h#
b0 g#
0f#
b0 e#
b0 d#
b0 c#
b0 b#
b1000000000000000000000000000010 a#
b0 `#
b0 _#
b0 ^#
b0 ]#
b0 \#
b0 [#
b0 Z#
b0 Y#
b0 X#
b0 W#
b0 V#
b0 U#
0T#
b0 S#
b0 R#
b0 Q#
b0 P#
b0 O#
b0 N#
b0 M#
b0 L#
b0 K#
b0 J#
b0 I#
b0 H#
b0 G#
b0 F#
b0 E#
b0 D#
b0 C#
b0 B#
b0 A#
b0 @#
b0 ?#
b0 >#
b0 =#
b0 <#
b0 ;#
b0 :#
b0 9#
b0 8#
b0 7#
b0 6#
b0 5#
b0 4#
b0 3#
b0 2#
b0 1#
b0 0#
b0 /#
b0 .#
b0 -#
b0 ,#
b0 +#
b0 *#
b0 )#
b0 (#
b0 '#
b0 &#
b0 %#
0$#
b0 A"
b0 @"
b0 <"
b0 ;"
b0 :"
b0 9"
b0 8"
b0 7"
06"
b0 5"
b0 4"
b0 3"
02"
b0 1"
b0 0"
0("
b0 '"
b0 &"
b0 %"
b0 $"
b0 #"
b0 ""
b0 !"
b0 ~
0}
b0 |
0{
b0 z
0y
0x
0w
0v
0u
b0 t
b0 s
b0 r
b0 q
1p
1o
1n
1m
b0 l
b0 k
b0 j
b0 i
1h
b0 g
b0 f
b0 e
b0 d
b0 c
b0 b
b0 a
b0 `
0_
b0 ^
b0 ]
0\
b0 [
0Z
0Y
0X
0W
0V
0U
0T
0S
0R
b0 Q
b0 P
b0 O
b0 N
b0 M
b0 L
b0 K
b0 J
b0 I
0H
b0 G
0F
b0 E
0D
0C
b0 B
0A
0@
b0 ?
b0 >
0=
1<
1;
0:
b0 9
08
b0 7
b0 6
05
04
b0 3
b0 2
01
b1000000000000000000000000000010 0
1/
b0 .
b0 -
b1 ,
b0 +
b0 *
b1000000000000 )
bx (
0'
0&
0%
0$
b0 #
1"
b1000000000000000000000000000010 !
$end
#10000
b10000 >$
1&
#20000
0&
#30000
b10000 >$
1&
#40000
0&
#50000
b10000 >$
1&
#60000
0&
#70000
b10000 >$
1&
#80000
0&
#90000
b0 !
b0 0
b0 a#
b1 #
b1 K
b1 b#
b10 *#
b1000000 )#
b1 e#
b1000000000000000000000000000010 M
b1000000000000000000000000000010 ,#
b1000000000000000000000000000010 c#
b0 (
1'
1&
#100000
0&
#110000
b100000001000000010000000000000000000000000000000000000001000000000000000000000000000000010000000000000001000000000000000000000010 X#
b100000001000000010000000000000000000000000000000000000001000000000000000000000000000000010000000000000001000000000000000000000010 >
b100000001000000010000000000000000000000000000000000000001000000000000000000000000000000010000000000000001000000000000000000000010 M#
b100000001000000010000000000000000000000000000000000000001000000000000000000000000000000010000000000000001000000000000000000000010 @$
1=
b10 #
b10 K
b10 b#
b0 *#
b0 )#
b10 ?
b10 N#
b10 ?$
b10 e#
b1 L
b1 +#
b1 d#
b0 M
b0 ,#
b0 c#
1\
1Y
b10 P#
b10 O#
b10 [
b10 9#
b10 H#
b1000000 Q
b1000000 :#
b1000000 I#
b1 (
1&
#120000
0&
#130000
0=
b0 >
b0 M#
b0 @$
b0 ?
b0 N#
b0 ?$
b0 X#
b11 #
b11 K
b11 b#
1y
b100000001000000010000000000000000000000000000000000000001000000000000000000000000000000010000000000000001000000000000000000000010 z
b100000001000000010000000000000000000000000000000000000001000000000000000000000000000000010000000000000001000000000000000000000010 \#
b100000001000000010000000000000000000000000000000000000001000000000000000000000000000000010000000000000001000000000000000000000010 "$
b1000000 t
b1000000 ]#
b1000000 #$
0Y
0\
b1 P
b1 ;#
b1 J#
b0 P#
b0 O#
b0 [
b0 9#
b0 H#
b0 Q
b0 :#
b0 I#
b11 e#
b10 L
b10 +#
b10 d#
b10 (
1&
#140000
0&
#150000
b1100000000000000000000000000000 !
b1100000000000000000000000000000 0
b1100000000000000000000000000000 a#
b100 #
b100 K
b100 b#
b100 e#
b11 L
b11 +#
b11 d#
b10 P
b10 ;#
b10 J#
0y
b0 z
b0 \#
b0 "$
b0 t
b0 ]#
b0 #$
11
1D
b100000001000000010000000000000000000000000000000000000001000000000000000000000000000000010000000000000001000000000000000000000010 2
b100000001000000010000000000000000000000000000000000000001000000000000000000000000000000010000000000000001000000000000000000000010 7$
b100000001000000010000000000000000000000000000000000000001000000000000000000000000000000010000000000000001000000000000000000000010 U$
b100000001000000010000000000000000000000000000000000000001000000000000000000000000000000010000000000000001000000000000000000000010 E
b100000001000000010000000000000000000000000000000000000001000000000000000000000000000000010000000000000001000000000000000000000010 )$
b100000001000000010000000000000000000000000000000000000001000000000000000000000000000000010000000000000001000000000000000000000010 Q$
b11 (
1&
#160000
0&
#170000
b100000000000000000000101010 !
b100000000000000000000101010 0
b100000000000000000000101010 a#
b101 #
b101 K
b101 b#
b1100000 )#
b100000001000000010000000000000000000000000000000000000001000000000000000000000000000000010000000000000001000000000000000000000010 d
b100000001000000010000000000000000000000000000000000000001000000000000000000000000000000010000000000000001000000000000000000000010 .#
b100000001000000010000000000000000000000000000000000000001000000000000000000000000000000010000000000000001000000000000000000000010 2$
b100000001000000010000000000000000000000000000000000000001000000000000000000000000000000010000000000000001000000000000000000000010 c
b100000001000000010000000000000000000000000000000000000001000000000000000000000000000000010000000000000001000000000000000000000010 -#
b100000001000000010000000000000000000000000000000000000001000000000000000000000000000000010000000000000001000000000000000000000010 3$
01
0D
b0 2
b0 7$
b0 U$
b0 E
b0 )$
b0 Q$
b11 P
b11 ;#
b11 J#
b101 e#
b100 L
b100 +#
b100 d#
b1100000000000000000000000000000 M
b1100000000000000000000000000000 ,#
b1100000000000000000000000000000 c#
b100 (
1&
#180000
0&
